Retrieving multiple resources using purrr
…
Retrieving multiple resources using purrr

It may be useful to retrieve multiple or all of the resources for a package. For example, the TTC Subway Delay Data is released monthly, with a new file each month.

library(opendatatoronto)

ttc_subway_delays_resources <- list_package_resources("https://open.toronto.ca/dataset/ttc-subway-delay-data/")

ttc_subway_delays_resources
#> # A tibble: 33 x 4
#>    name                      id                        format last_modified
#>    <chr>                     <chr>                     <chr>  <date>       
#>  1 ttc-subway-delay-codes    fece136b-224a-412a-b191-… XLSX   2019-08-15   
#>  2 ttc-subway-delay-jan-201… 6664420f-316f-4f94-9ba4-… XLSX   2019-08-15   
#>  3 ttc-subway-delay-may-2017 d1159888-0035-45a0-b238-… XLSX   2019-08-15   
#>  4 ttc-subway-delay-june-20… 240d8e8c-d300-4f91-b94f-… XLSX   2019-08-15   
#>  5 ttc-subway-delay-july-20… 98d4ac77-aa9f-40a3-97ee-… XLSX   2019-08-15   
#>  6 ttc-subway-delay-august-… 92e7649a-cf2f-4ac7-9802-… XLSX   2019-08-15   
#>  7 ttc-subway-delay-septemb… 61412f10-656b-4992-9a1a-… XLSX   2019-08-15   
#>  8 ttc-subway-delay-october… 69a6db37-7982-49c7-8dbc-… XLSX   2019-08-15   
#>  9 ttc-subway-delay-novembe… 10080217-8022-41c0-a8ba-… XLSX   2019-08-15   
#> 10 ttc-subway-delay-decembe… a731c4bb-630a-4530-b590-… XLSX   2019-08-15   
#> # … with 23 more rows
…
so the data can easily be unnested and combined:

bind_rows(ttc_subway_delays_2019[["data"]])
#> # A tibble: 16,185 x 10
#>    Date                Time  Day   Station Code  `Min Delay` `Min Gap`
#>    <dttm>              <chr> <chr> <chr>   <chr>       <dbl>     <dbl>
#>  1 2019-01-01 00:00:00 01:08 Tues… YORK M… PUSI            0         0
#>  2 2019-01-01 00:00:00 02:14 Tues… ST AND… PUMST           0         0
#>  3 2019-01-01 00:00:00 02:16 Tues… JANE S… TUSC            0         0
#>  4 2019-01-01 00:00:00 02:27 Tues… BLOOR … SUO             0         0
#>  5 2019-01-01 00:00:00 03:03 Tues… DUPONT… MUATC          11        16
#>  6 2019-01-01 00:00:00 03:08 Tues… EGLINT… EUATC          11        16
#>  7 2019-01-01 00:00:00 03:09 Tues… DUPONT… EUATC           6        11
#>  8 2019-01-01 00:00:00 03:26 Tues… ST CLA… EUATC           4         9
#>  9 2019-01-01 00:00:00 03:37 Tues… KENNED… TUMVS           0         0
#> 10 2019-01-01 00:00:00 08:04 Tues… DAVISV… MUNOA           5        10
#> # … with 16,175 more rows, and 3 more variables: Bound <chr>, Line <chr>,
#> #   Vehicle <dbl>
